6.911828041076659712e-01
6.592287737131118375e-01
6.076291754841804948e-01
5.749334996938705311e-01
5.439244931936264571e-01
5.116451346874236750e-01
4.923727804422378673e-01
4.566391195356845900e-01
4.361211296916007729e-01
4.071921226382255732e-01
3.843530976772308594e-01
3.561037044227123305e-01
3.321634923666715866e-01
3.106903840601444311e-01
2.802519649267196655e-01
2.638256708532571992e-01
2.382468149065971319e-01
2.167060438543558232e-01
1.967218929156661078e-01
1.725573676452040739e-01
1.573721736669540516e-01
1.431513412669301044e-01
1.191575583629310153e-01
1.075761884637176924e-01
1.004538682382553755e-01
7.752740629017353113e-02
7.010932480916380605e-02
5.978956404840573419e-02
5.048191958107053900e-02
4.214497989974916314e-02
